<?xml version="1.0" encoding="UTF-8" standalone="no"?>
<!-- Created with Inkscape (http://www.inkscape.org/) -->

<svg
   xmlns:dc="http://purl.org/dc/elements/1.1/"
   xmlns:cc="http://creativecommons.org/ns#"
   xmlns:rdf="http://www.w3.org/1999/02/22-rdf-syntax-ns#"
   xmlns:svg="http://www.w3.org/2000/svg"
   xmlns="http://www.w3.org/2000/svg"
   xmlns:sodipodi="http://sodipodi.sourceforge.net/DTD/sodipodi-0.dtd"
   xmlns:inkscape="http://www.inkscape.org/namespaces/inkscape"
   width="19.84375mm"
   height="19.84375mm"
   viewBox="0 0 19.84375 19.84375"
   version="1.1"
   id="svg8"
   inkscape:version="0.92.1 r15371"
   sodipodi:docname="PocketUpIcon.svg"
   inkscape:export-filename="/home/juanito/Desktop/PocketUpIcon.png"
   inkscape:export-xdpi="1310.72"
   inkscape:export-ydpi="1310.72">
  <defs
     id="defs2">
    <filter
       inkscape:collect="always"
       style="color-interpolation-filters:sRGB"
       id="filter1084"
       x="-0.10767109"
       width="1.2153422"
       y="-0.086136945"
       height="1.1722739">
      <feGaussianBlur
         inkscape:collect="always"
         stdDeviation="0.41782485"
         id="feGaussianBlur1086" />
    </filter>
    <filter
       inkscape:collect="always"
       style="color-interpolation-filters:sRGB"
       id="filter1084-2"
       x="-0.10767109"
       width="1.2153422"
       y="-0.086136945"
       height="1.1722739">
      <feGaussianBlur
         inkscape:collect="always"
         stdDeviation="0.41782485"
         id="feGaussianBlur1086-7" />
    </filter>
    <filter
       inkscape:collect="always"
       style="color-interpolation-filters:sRGB"
       id="filter1084-2-8"
       x="-0.10767109"
       width="1.2153422"
       y="-0.086136945"
       height="1.1722739">
      <feGaussianBlur
         inkscape:collect="always"
         stdDeviation="0.41782485"
         id="feGaussianBlur1086-7-7" />
    </filter>
  </defs>
  <sodipodi:namedview
     id="base"
     pagecolor="#ffffff"
     bordercolor="#666666"
     borderopacity="1.0"
     inkscape:pageopacity="0.0"
     inkscape:pageshadow="2"
     inkscape:zoom="3.959798"
     inkscape:cx="52.899087"
     inkscape:cy="19.05306"
     inkscape:document-units="mm"
     inkscape:current-layer="layer1"
     showgrid="false"
     inkscape:window-width="1366"
     inkscape:window-height="719"
     inkscape:window-x="0"
     inkscape:window-y="25"
     inkscape:window-maximized="1"
     fit-margin-top="0"
     fit-margin-left="0"
     fit-margin-right="0"
     fit-margin-bottom="0"
     inkscape:snap-grids="true"
     inkscape:object-paths="true"
     showguides="false"
     inkscape:snap-others="false"
     inkscape:snap-nodes="true"
     inkscape:snap-global="true"
     inkscape:snap-smooth-nodes="true">
    <inkscape:grid
       type="xygrid"
       id="grid3680"
       originx="-42.933342"
       originy="-128.99682" />
  </sodipodi:namedview>
  <metadata
     id="metadata5">
    <rdf:RDF>
      <cc:Work
         rdf:about="">
        <dc:format>image/svg+xml</dc:format>
        <dc:type
           rdf:resource="http://purl.org/dc/dcmitype/StillImage" />
        <dc:title />
      </cc:Work>
    </rdf:RDF>
  </metadata>
  <g
     inkscape:label="Layer 1"
     inkscape:groupmode="layer"
     id="layer1"
     transform="translate(-42.933338,-148.15944)">
    <circle
       id="path3698"
       cx="-26.429754"
       cy="157.85439"
       r="9.921875"
       style="fill:#006695;fill-opacity:1;stroke:none;stroke-width:0.26458332;stroke-opacity:1" />
    <g
       id="g3824"
       transform="matrix(0.18297609,0.02787054,-0.02787054,0.18297609,9.4125263,-20.023484)">
      <rect
         ry="4.3440123"
         y="930.76172"
         x="-70.973618"
         height="75.247444"
         width="43.956429"
         id="rect3050"
         style="fill:#000000;stroke:none" />
      <rect
         ry="0.4496032"
         y="943.19073"
         x="-54.253231"
         height="49.736477"
         width="30.554565"
         id="rect3820"
         style="fill:#cccccc;stroke:none"
         transform="matrix(0.99995288,-0.00970753,-0.01035194,0.99994642,0,0)" />
      <ellipse
         ry="1.6572815"
         rx="1.381068"
         cy="60.644661"
         cx="-117.39078"
         transform="matrix(0.53626942,0,0,0.53626942,14.623504,904.70808)"
         id="path3822"
         style="fill:#b3b3b3;stroke:none" />
    </g>
    <path
       style="fill:#552200;fill-opacity:1;fill-rule:evenodd;stroke:#000000;stroke-width:0.26458332px;stroke-linecap:butt;stroke-linejoin:miter;stroke-opacity:1"
       d="m -31.795019,153.04248 v 10.58333 l 5.291657,2.64583 5.291667,-2.64583 v -10.58333 z"
       id="path3696"
       inkscape:connector-curvature="0" />
    <circle
       id="path3698-3"
       style="fill:#0064ff;fill-opacity:1;stroke:none;stroke-width:0.26458332;stroke-opacity:1"
       cy="158.08131"
       cx="-0.061455887"
       r="9.921875" />
    <path
       id="path3698-3-6"
       style="fill:#002580;fill-opacity:1;stroke:none;stroke-width:0.26458332;stroke-opacity:1"
       sodipodi:type="arc"
       sodipodi:cx="-69.778534"
       sodipodi:cy="141.86897"
       sodipodi:rx="9.921875"
       sodipodi:ry="9.921875"
       sodipodi:start="0"
       sodipodi:end="4.0513458"
       sodipodi:open="true"
       d="m -59.856659,141.86897 a 9.921875,9.921875 0 0 1 -7.753261,9.68198 9.921875,9.921875 0 0 1 -11.142506,-5.44962 9.921875,9.921875 0 0 1 2.88245,-12.06421"
       transform="matrix(0.89753094,-0.44095148,0.44095264,0.89753037,0,0)" />
    <rect
       style="fill:#000000;stroke:none;stroke-width:0.1850865"
       id="rect3050-7"
       width="8.1357422"
       height="13.927287"
       x="19.32411"
       y="148.17012"
       ry="0.80401808"
       transform="rotate(8.6606067)" />
    <rect
       transform="matrix(0.99001284,0.14097721,-0.16080697,0.98698588,0,0)"
       style="fill:#ffffff;stroke:none;stroke-width:0.1850865"
       id="rect3820-5"
       width="5.6552377"
       height="9.2055511"
       x="22.174088"
       y="150.78198"
       ry="0.08321549" />
    <ellipse
       style="fill:#b3b3b3;stroke:none;stroke-width:0.09925623"
       id="path3822-3"
       transform="rotate(8.6606078)"
       cx="23.515217"
       cy="149.36731"
       rx="0.13707961"
       ry="0.16449553" />
    <path
       style="fill:#1a1a1a;fill-opacity:1;fill-rule:evenodd;stroke:#000000;stroke-width:0;stroke-linecap:butt;stroke-linejoin:round;stroke-miterlimit:4;stroke-dasharray:none;stroke-dashoffset:0;stroke-opacity:1;filter:url(#filter1084)"
       d="m 74.773432,161.52113 0.03229,8.7858 4.546452,2.41548 4.697611,-2.54016 -0.0181,-8.74684 z"
       id="path3696-5-2"
       inkscape:connector-curvature="0"
       transform="matrix(1.2123667,0,0,1.1692996,-96.413844,-34.183008)"
       sodipodi:nodetypes="cccccc" />
    <path
       style="fill:#00ab13;fill-opacity:1;fill-rule:evenodd;stroke:#00ab13;stroke-width:1.38800001;stroke-linecap:butt;stroke-linejoin:round;stroke-miterlimit:4;stroke-dasharray:none;stroke-dashoffset:0;stroke-opacity:1"
       d="m -4.791668,154.85964 v 9.31336 l 4.65667863,2.32833 4.65667897,-2.32833 v -9.31336 z"
       id="path3696-5"
       inkscape:connector-curvature="0" />
    <rect
       style="fill:#000000;stroke:none;stroke-width:0.1850865"
       id="rect3050-7-1"
       width="8.1357422"
       height="13.927287"
       x="58.860394"
       y="111.38856"
       ry="0.80401808"
       transform="rotate(8.6606067)" />
    <rect
       transform="matrix(0.99001284,0.14097721,-0.16080697,0.98698588,0,0)"
       style="fill:#cccccc;stroke:none;stroke-width:0.1850865"
       id="rect3820-5-2"
       width="5.6552377"
       height="9.2055511"
       x="61.335346"
       y="114.37866"
       ry="0.08321549" />
    <ellipse
       style="fill:#b3b3b3;stroke:none;stroke-width:0.09925623"
       id="path3822-3-7"
       transform="rotate(8.6606078)"
       cx="63.051495"
       cy="112.58574"
       rx="0.13707961"
       ry="0.16449553" />
    <path
       style="fill:#008000;fill-opacity:1;fill-rule:evenodd;stroke:#008000;stroke-width:1.38800001;stroke-linecap:butt;stroke-linejoin:round;stroke-miterlimit:4;stroke-dasharray:none;stroke-dashoffset:0;stroke-opacity:1"
       d="m -4.791668,154.85964 v 9.31313 l 4.65656363,2.32854 v -11.64167 z"
       id="path3696-5-0"
       inkscape:connector-curvature="0" />
    <circle
       id="path3698-3-0"
       style="fill:#0064ff;fill-opacity:1;stroke:none;stroke-width:0.26458332;stroke-opacity:1"
       cy="158.08131"
       cx="26.396873"
       r="9.921875" />
    <path
       id="path3698-3-6-9"
       style="fill:#002580;fill-opacity:1;stroke:none;stroke-width:0.26458332;stroke-opacity:1"
       sodipodi:type="arc"
       sodipodi:cx="-46.031384"
       sodipodi:cy="153.53584"
       sodipodi:rx="9.921875"
       sodipodi:ry="9.921875"
       sodipodi:start="0"
       sodipodi:end="4.0513458"
       sodipodi:open="true"
       d="m -36.109509,153.53584 a 9.921875,9.921875 0 0 1 -7.753261,9.68198 9.921875,9.921875 0 0 1 -11.142505,-5.44962 9.921875,9.921875 0 0 1 2.882449,-12.06421"
       transform="matrix(0.89753094,-0.44095149,0.44095265,0.89753037,0,0)" />
    <g
       id="g4603"
       transform="matrix(1.0907816,0,0,1.0907816,-31.074218,-13.967965)">
      <rect
         transform="rotate(8.6606067)"
         ry="0.80401808"
         y="140.20183"
         x="71.637405"
         height="13.927287"
         width="8.1357422"
         id="rect3050-7-3"
         style="fill:#000000;stroke:none;stroke-width:0.1850865" />
      <rect
         ry="0.08321549"
         y="143.32043"
         x="74.412598"
         height="9.2055511"
         width="5.6552377"
         id="rect3820-5-6"
         style="fill:#ffffff;stroke:none;stroke-width:0.1850865"
         transform="matrix(0.99001284,0.14097721,-0.16080697,0.98698588,0,0)" />
      <ellipse
         ry="0.16449553"
         rx="0.13707961"
         cy="141.39902"
         cx="75.828522"
         transform="rotate(8.6606077)"
         id="path3822-3-0"
         style="fill:#b3b3b3;stroke:none;stroke-width:0.09925624" />
    </g>
    <path
       style="fill:#1a1a1a;fill-opacity:1;fill-rule:evenodd;stroke:#000000;stroke-width:0;stroke-linecap:butt;stroke-linejoin:round;stroke-miterlimit:4;stroke-dasharray:none;stroke-dashoffset:0;stroke-opacity:1;filter:url(#filter1084-2)"
       d="m 74.773432,161.52113 0.03229,8.7858 4.546452,2.41548 4.697611,-2.54016 -0.0181,-8.74684 z"
       id="path3696-5-2-6"
       inkscape:connector-curvature="0"
       transform="matrix(1.2123667,0,0,1.1692996,-69.955514,-34.183009)"
       sodipodi:nodetypes="cccccc" />
    <path
       style="fill:#00ab13;fill-opacity:1;fill-rule:evenodd;stroke:#00ab13;stroke-width:1.38800013;stroke-linecap:butt;stroke-linejoin:round;stroke-miterlimit:4;stroke-dasharray:none;stroke-dashoffset:0;stroke-opacity:1"
       d="m 21.666661,155.14311 v 9.31336 l 4.656679,2.32833 4.65668,-2.32833 v -9.31336 z"
       id="path3696-5-26"
       inkscape:connector-curvature="0" />
    <path
       style="fill:#008000;fill-opacity:1;fill-rule:evenodd;stroke:#008000;stroke-width:1.38800013;stroke-linecap:butt;stroke-linejoin:round;stroke-miterlimit:4;stroke-dasharray:none;stroke-dashoffset:0;stroke-opacity:1"
       d="m 21.666661,155.14311 v 9.31313 l 4.656564,2.32854 v -11.64167 z"
       id="path3696-5-0-1"
       inkscape:connector-curvature="0" />
    <circle
       id="path3698-3-0-9"
       style="fill:#ffd91d;fill-opacity:1;stroke:none;stroke-width:0.26458332;stroke-opacity:1"
       cy="158.08131"
       cx="52.855209"
       r="9.921875" />
    <path
       id="path3698-3-6-9-2"
       style="fill:#0064ff;fill-opacity:1;stroke:none;stroke-width:0.26458332;stroke-opacity:1"
       sodipodi:type="arc"
       sodipodi:cx="-22.284225"
       sodipodi:cy="165.20271"
       sodipodi:rx="9.921875"
       sodipodi:ry="9.921875"
       sodipodi:start="0"
       sodipodi:end="4.0513458"
       sodipodi:open="true"
       d="m -12.36235,165.20271 a 9.921875,9.921875 0 0 1 -7.753262,9.68198 9.921875,9.921875 0 0 1 -11.142505,-5.44962 9.921875,9.921875 0 0 1 2.882449,-12.06421"
       transform="matrix(0.89753094,-0.44095149,0.44095265,0.89753037,0,0)" />
    <g
       id="g4603-0"
       transform="matrix(1.0806976,0,0,1.0806976,-4.1346437,-12.311449)">
      <rect
         transform="rotate(8.6606067)"
         ry="0.80401808"
         y="140.20183"
         x="71.637405"
         height="13.927287"
         width="8.1357422"
         id="rect3050-7-3-2"
         style="fill:#000000;stroke:none;stroke-width:0.1850865" />
      <rect
         ry="0.08321549"
         y="143.32043"
         x="74.412598"
         height="9.2055511"
         width="5.6552377"
         id="rect3820-5-6-3"
         style="fill:#ffffff;stroke:none;stroke-width:0.1850865"
         transform="matrix(0.99001284,0.14097721,-0.16080697,0.98698588,0,0)" />
      <ellipse
         ry="0.16449553"
         rx="0.13707961"
         cy="141.39902"
         cx="75.828522"
         transform="rotate(8.6606077)"
         id="path3822-3-0-7"
         style="fill:#b3b3b3;stroke:none;stroke-width:0.09925624" />
    </g>
    <path
       style="fill:#1a1a1a;fill-opacity:1;fill-rule:evenodd;stroke:#000000;stroke-width:0;stroke-linecap:butt;stroke-linejoin:round;stroke-miterlimit:4;stroke-dasharray:none;stroke-dashoffset:0;stroke-opacity:1;filter:url(#filter1084-2-8)"
       d="m 74.773432,161.52113 0.03229,8.7858 4.546452,2.41548 4.697611,-2.54016 -0.0181,-8.74684 z"
       id="path3696-5-2-6-5"
       inkscape:connector-curvature="0"
       transform="matrix(1.2123667,0,0,1.1692996,-43.49718,-34.183009)"
       sodipodi:nodetypes="cccccc" />
    <path
       style="fill:#00ab13;fill-opacity:1;fill-rule:evenodd;stroke:#00ab13;stroke-width:1.38800025;stroke-linecap:butt;stroke-linejoin:round;stroke-miterlimit:4;stroke-dasharray:none;stroke-dashoffset:0;stroke-opacity:1"
       d="m 48.124997,155.14311 v 9.31336 l 4.656679,2.32833 4.65668,-2.32833 v -9.31336 z"
       id="path3696-5-26-9"
       inkscape:connector-curvature="0" />
    <path
       style="fill:#008000;fill-opacity:1;fill-rule:evenodd;stroke:#008000;stroke-width:1.38800025;stroke-linecap:butt;stroke-linejoin:round;stroke-miterlimit:4;stroke-dasharray:none;stroke-dashoffset:0;stroke-opacity:1"
       d="m 48.124997,155.14311 v 9.31313 l 4.656564,2.32854 v -11.64167 z"
       id="path3696-5-0-1-2"
       inkscape:connector-curvature="0" />
  </g>
</svg>
